{
	"id": "26a995a8-4157-47dc-570d-87d72e77176d",
	"name": "project",
	"description": "",
	"order": [
		"d83358f3-b6ab-409a-9285-ab5c082f2b08",
		"c2dca32b-bdbf-fd60-5223-b2837917facd"
	],
	"folders": [],
	"folders_order": [],
	"timestamp": 1657460673217,
	"owner": 0,
	"public": false,
	"requests": [
		{
			"id": "c2dca32b-bdbf-fd60-5223-b2837917facd",
			"headers": "",
			"headerData": [],
			"url": "http://127.0.0.1:8000/api/membership/image/hello",
			"queryParams": [],
			"preRequestScript": null,
			"pathVariables": {},
			"pathVariableData": [],
			"method": "POST",
			"data": [
				{
					"key": "image",
					"value": "Selection_001.png",
					"description": "",
					"type": "file",
					"enabled": true
				}
			],
			"dataMode": "params",
			"tests": null,
			"currentHelper": "normal",
			"helperAttributes": {},
			"time": 1657460718503,
			"name": "upload file",
			"description": "",
			"collectionId": "26a995a8-4157-47dc-570d-87d72e77176d",
			"responses": []
		},
		{
			"id": "d83358f3-b6ab-409a-9285-ab5c082f2b08",
			"headers": "",
			"headerData": [],
			"url": "http://127.0.0.1:8000/api/membership/image/hello",
			"queryParams": [],
			"preRequestScript": null,
			"pathVariables": {},
			"pathVariableData": [],
			"method": "GET",
			"data": [
				{
					"key": "image",
					"value": "",
					"description": "",
					"type": "file",
					"enabled": true
				}
			],
			"dataMode": "params",
			"version": 2,
			"tests": null,
			"currentHelper": "normal",
			"helperAttributes": {},
			"time": 1657460723300,
			"name": "get file",
			"description": "",
			"collectionId": "26a995a8-4157-47dc-570d-87d72e77176d",
			"responses": []
		}
	]
}